TFSM,   0.66667 , 0.00000
TFLM,   0.50000 , 0.00000
RAKE,   0.20000 , 0.20000
TRnk,   0.69231 , 0.20000
TFSM,   0.58824 , 0.00000
TFLM,   0.41667 , 0.00000
RAKE,   0.25000 , 0.14286
TRnk,   0.60000 , 0.14286
TFSM,   0.50000 , 0.30000
TFLM,   0.33333 , 0.20000
RAKE,   0.11111 , 0.20000
TRnk,   0.50000 , 0.30000
TFSM,   0.50000 , 0.30000
TFLM,   0.33333 , 0.20000
RAKE,   0.11111 , 0.20000
TRnk,   0.50000 , 0.30000
TFSM,   0.50000 , 0.30000
TFLM,   0.50000 , 0.50000
RAKE,   0.20000 , 0.20000
TRnk,   0.50000 , 0.30000
TFSM,   0.50000 , 0.30000
TFLM,   0.50000 , 0.50000
RAKE,   0.50000 , 0.40000
TRnk,   0.50000 , 0.30000
TFSM,   0.50000 , 0.30000
TFLM,   0.50000 , 0.50000
RAKE,   0.50000 , 0.50000
TRnk,   0.50000 , 0.30000